[api-updater (non-obsolete-error-filter)] 14.09.2021 18:17:01 : Starting C:/Program Files/Unity/Hub/Editor/2020.3.15f2/Editor/Data/Tools/ScriptUpdater/APIUpdater.NonObsoleteApiUpdaterDetector.exe
[api-updater (non-obsolete-error-filter)] 
----------------------------------
jit/startup time      : 3626,3388ms
moved types parse time: 128ms
candidates parse time : 2ms
C# parse time         : 1536ms
candidates check time : 59ms
console write time    : 3ms

